{
	"info": {
		"_postman_id": "e5e702a4-87a2-4604-9f41-6910aac6daa4",
		"name": "PetStore",
		"schema": "https://schema.getpostman.com/json/collection/v2.1.0/collection.json",
		"_exporter_id": "23936433"
	},
	"item": [
		{
			"name": "User creation",
			"request": {
				"method": "POST",
				"header": [],
				"body": {
					"mode": "raw",
					"raw": "{\r\n  \"id\": 1991,\r\n  \"username\": \"Serega\",\r\n  \"firstName\": \"Serhii\",\r\n  \"lastName\": \"Herasymchuk\",\r\n  \"email\": \"vxdweb@gmail.com\",\r\n  \"password\": \"123456\",\r\n  \"phone\": \"123456\",\r\n  \"userStatus\": 1\r\n}",
					"options": {
						"raw": {
							"language": "json"
						}
					}
				},
				"url": {
					"raw": "https://petstore.swagger.io/v2/user",
					"protocol": "https",
					"host": [
						"petstore",
						"swagger",
						"io"
					],
					"path": [
						"v2",
						"user"
					]
				}
			},
			"response": []
		},
		{
			"name": "firstName and lastName updates",
			"request": {
				"method": "PUT",
				"header": [],
				"body": {
					"mode": "raw",
					"raw": "{\r\n  \"id\": 0,\r\n  \"username\": \"string\",\r\n  \"firstName\": \"string\",\r\n  \"lastName\": \"string\",\r\n  \"email\": \"string\",\r\n  \"password\": \"string\",\r\n  \"phone\": \"string\",\r\n  \"userStatus\": 0\r\n}",
					"options": {
						"raw": {
							"language": "json"
						}
					}
				},
				"url": {
					"raw": "https://petstore.swagger.io/v2/user/{username}",
					"protocol": "https",
					"host": [
						"petstore",
						"swagger",
						"io"
					],
					"path": [
						"v2",
						"user",
						"{username}"
					]
				}
			},
			"response": []
		},
		{
			"name": "User deletion",
			"request": {
				"method": "DELETE",
				"header": []
			},
			"response": []
		}
	],
	"event": [
		{
			"listen": "prerequest",
			"script": {
				"type": "text/javascript",
				"exec": [
					""
				]
			}
		},
		{
			"listen": "test",
			"script": {
				"type": "text/javascript",
				"exec": [
					""
				]
			}
		}
	],
	"variable": [
		{
			"key": "username",
			"value": "1991",
			"disabled": true
		},
		{
			"key": "userId",
			"value": "9222968140497280258",
			"type": "string"
		},
		{
			"key": "username",
			"value": "Serega",
			"type": "string"
		}
	]
}